%YAML 1.1
%TAG !u! tag:unity3d.com,2011:
--- !u!1045 &1
EditorBuildSettings:
  m_ObjectHideFlags: 0
  serializedVersion: 2
  m_Scenes: []
  m_configObjects:
    Unity.XR.Oculus.Settings: {fileID: 11400000, guid: d28763c6e74fbbb4b9ed11ddc2985d0f, type: 2}
    com.unity.xr.management.loader_settings: {fileID: 11400000, guid: af8d309667c0c6d47ac1c8a31febf09f, type: 2}
